{
  "schema_addComment": {
    "$schema": "http://json-schema.org/draft-04/schema#",
    "type": "object",
    "properties": {
      "id": {
        "type": "integer"
      },
      "createdAt": {
        "type": "string"
      },
      "author": {
        "type": "object",
        "properties": {
          "id": {
            "type": "integer"
          },
          "avatar": {
            "type": "string"
          },
          "email": {
            "type": "string"
          },
          "userName": {
            "type": "string"
          }
        },
        "required": [
          "id",
          "avatar",
          "email",
          "userName"
        ]
      },
      "body": {
        "type": "string"
      },
      "reactions": {
        "type": "array",
        "items": {}
      }
    },
    "required": [
      "id",
      "createdAt",
      "author",
      "body",
      "reactions"
    ]
  }
  
}
